Stat 579 - Homework #7
…
hdi_long %>% 
  group_by(indicator_name) %>% 
  summarise(n=n())

## # A tibble: 136 x 2
##    indicator_name                                                         n
##    <chr>                                                              <int>
##  1 Adjusted net savings (% of GNI)                                     1472
##  2 Adolescent birth rate (births per 1,000 women ages 15-19)           2220
##  3 Antenatal care coverage, at least one visit (%)                      493
##  4 Carbon dioxide emissions (kg per 2011 PPP $ of GDP)                 2350
##  5 Carbon dioxide emissions, per capita (tonnes)                       1689
##  6 Coefficient of human inequality                                     1153
##  7 Concentration index (exports) (value)                               2660
##  8 Contraceptive prevalence, any method (% of married or in-union wo   543
##  9 Current health expenditure (% of GDP)                               2976
## 10 Domestic credit provided by financial sector (% of GDP)             2613
## #  with 126 more rows
…
