Stat 579 - Homework #7 - Section B
…
##  ggplot2 3.2.1      purrr   0.3.3
##  tibble  2.1.3      dplyr   0.8.3
##  tidyr   1.0.0      stringr 1.4.0
##  readr   1.3.1      forcats 0.4.0

##  Conflicts  tidyverse_conflicts() 
##  dplyr::filter() masks stats::filter()
##  dplyr::lag()    masks stats::lag()

ChickWeight %>%
  group_by(Chick,Diet) %>% 
  summarise(n = n()) %>%
  arrange(n)

## # A tibble: 50 x 3
## # Groups:   Chick [50]
##    Chick Diet      n
##    <ord> <fct> <int>
##  1 18    1         2
##  2 16    1         7
##  3 15    1         8
##  4 44    4        10
##  5 8     1        11
##  6 13    1        12
##  7 9     1        12
##  8 20    1        12
##  9 10    1        12
## 10 17    1        12
## #  with 40 more rows
…
